[gd_scene load_steps=6 format=2]

[ext_resource path="res://scenes/control_view/control_view.gd" type="Script" id=1]
[ext_resource path="res://scenes/control_view/control_view_2d.tscn" type="PackedScene" id=2]

[sub_resource type="PlaneMesh" id=1]

[sub_resource type="ViewportTexture" id=2]
viewport_path = NodePath("Viewport")

[sub_resource type="SpatialMaterial" id=3]
resource_local_to_scene = true
flags_transparent = true
flags_unshaded = true
albedo_texture = SubResource( 2 )

[node name="ControlView" type="Spatial"]
script = ExtResource( 1 )

[node name="MeshInstance" type="MeshInstance" parent="."]
mesh = SubResource( 1 )
material/0 = SubResource( 3 )

[node name="Viewport" type="Viewport" parent="."]
size = Vector2( 256, 256 )
transparent_bg = true
usage = 0
render_target_v_flip = true
gui_disable_input = true

[node name="ControlView2D" parent="Viewport" instance=ExtResource( 2 )]

