[gd_scene load_steps=3 format=2]

[ext_resource path="res://scenes/team_indicator/indicator.png" type="Texture" id=1]

[sub_resource type="SpatialMaterial" id=1]
resource_local_to_scene = true
flags_transparent = true
flags_unshaded = true
params_billboard_mode = 3
particles_anim_h_frames = 1
particles_anim_v_frames = 1
particles_anim_loop = false

[node name="TeamIndicator" type="Sprite3D"]
material_override = SubResource( 1 )
cast_shadow = 0
centered = false
offset = Vector2( -512, 0 )
pixel_size = 0.0002
alpha_cut = 2
texture = ExtResource( 1 )

